Delineamento em parcelas subdivididas – FIP 606
…
Usaremos o pacote {readxl} para importar os dados, {tidyverse} para manipulação e gráficos, {car} para o teste de Levene, {lme4} e {lmerTest} para modelos mistos, {DHARMa} para diagnóstico por resíduos simulados, {emmeans} para médias marginais estimadas e {multcomp} para letras de agrupamento.

Importação dos dados

milho <- read_excel("dados_diversos.xlsx", sheet = "milho")

milho

# A tibble: 48 × 5
   hybrid   block method index yield
   <chr>    <dbl> <chr>  <dbl> <dbl>
 1 30F53 HX     1 pin     21.1 12920
 2 30F53 HX     2 pin     21.1  9870
 3 30F53 HX     3 pin     23.3  8920
 4 30F53 HX     4 pin     35.6 13120
 5 30F53 YH     1 pin     21.1 12060
 6 30F53 YH     2 pin     22.2  7860
 7 30F53 YH     3 pin     27.3  7410
 8 30F53 YH     4 pin     27.8 10300
 9 30K64        1 pin     20.0 11700
10 30K64        2 pin     20.0 10700
# ℹ 38 more rows
…
